{
	"id": "104f6443-b058-4de7-a320-e4367051a5e5",
	"name": "sample",
	"values": [
		{
			"key": "base_url",
			"value": "springboot",
			"enabled": true
		},
		{
			"key": "port",
			"value": "8080",
			"enabled": true
		},
		{
			"key": "actuator_base_path",
			"value": "admin-tools",
			"enabled": true
		},
		{
			"key": "actuator_username",
			"value": "admin",
			"enabled": true
		},
		{
			"key": "actuator_userpassword",
			"value": "admin",
			"enabled": true
		}
	],
	"_postman_variable_scope": "environment",
	"_postman_exported_at": "2020-06-24T21:33:48.625Z",
	"_postman_exported_using": "Postman/7.27.0"
}